Family,SMILES,Mol_names,fp_scores,SYBA_score,natoms,S0,S1,T1,HOMO,LUMO,LUMO-HOMO,DEST,N atoms,EV/atom,Forces
PXZ-TRZ,c7ccc(c6nc(c1ccccc1)nc(c5ccc(n4c2ccccc2oc3ccccc34)cc5)n6)cc7,PXZ-TRZ,1,36.22080509808731,38,-7850.862883,2.316165,2.274697,-4.390653,-3.004151,1.386502,0.041467,60,-130.8477147,0.001165726
TXO-PhCz,O=C6c1ccccc1S(=O)(=O)c7ccc(c2ccc4c(c2)c3ccccc3n4c5ccccc5)cc67,TXO-PhCz,1,27.80647525889104,36,-7756.894075,2.43255,2.356918,-5.222548,-3.520371,1.702177,0.075632,55,-141.0344377,0.001033755
TXO-TPA,O=C5c1ccccc1S(=O)(=O)c6ccc(c4ccc(N(c2ccccc2)c3ccccc3)cc4)cc56,TXO-TPA,1,49.425949574689675,36,-7788.606662,2.264893,2.201622,-4.812529,-3.606739,1.205789,0.063271,57,-136.6422221,0.001149824
GOBVUP,Clc4ccc(c3csc(=c2scc(c1ccc(Cl)cc1)s2)s3)cc4,GOBVUP,1,-2.196498560000881,24,-5835.191395,1.664485,1.616883,-3.962517,-2.296047,1.66647,0.047602,34,-171.6232763,0.007657461
TUFWAS,c6csc(c4sc(=c3sc(c1cccs1)c(c2cccs2)s3)sc4c5cccs5)c6,TUFWAS,1,18.543953867188417,30,-6349.704885,1.506892,1.459664,-3.889659,-2.408294,1.481365,0.047228,42,-151.1834496,0.010894023
