﻿Energy (eV),Force Norm (Hartree/Bohr),Geometry optisimed Method,HOMO (eV),LUMO (ev),molecule,LUMO-HOMO
-132.5923688,0.000433294,BigDFT,-5.592629095,-3.491852409,2CzPN,2.100776686
-132.587093,0.112404,MMFF94,-5.562265,-3.419561,2CzPN,2.142705
-119.3846322,0.000192223,BigDFT,-4.97182302,-2.471990414,CBP,2.499832606
-119.38099,0.094962,MMFF94,-4.998088,-2.054175,CBP,2.943913
-125.423675,0.00332,BigDFT,-5.231339,-2.964533,Cz2BP,2.266806
-125.419616,0.100479,MMFF94,-5.214511,-2.906044,Cz2BP,2.308468
-190.185366,0.004359,BigDFT,-3.967124,-2.264732,GOBVUP,1.702392
-190.182191,0.041024,MMFF94,-3.955886,-2.220191,GOBVUP,1.735695
-190.224238,0.009767,BigDFT,-4.105403,-2.337207,GOBVUP-mut,1.768196
-190.217806,0.04564,MMFF94,-3.934581,-2.201492,GOBVUP-mut,1.733089
-115.243518,0.027068,BigDFT,-4.632581,-2.372337,KAGCAW,2.260244
-115.244826,0.059654,MMFF94,-4.653345,-2.373704,KAGCAW,2.279642
-238.000407,0.016762,BigDFT,-4.156928,-2.602422,MOPKEI,1.554506
-237.988484,0.066985,MMFF94,-4.168184,-2.613421,MOPKEI,1.554762
-116.154707,0.038287,BigDFT,-5.038252,-1.838882,PhCz,3.19937
-116.153393,0.065578,MMFF94,-5.021485,-1.87423,PhCz,3.147255
-130.8477147,0.001165726,BigDFT,-4.39065303,-3.004151174,PXZ-TRZ,1.386501856
-130.84535,0.059228,MMFF94,-4.317159,-3.070328,PXZ-TRZ,1.246831
-122.595016,0.003098,BigDFT,-4.842761,-3.05565,RAPGEV,1.787111
-122.593063,0.054446,MMFF94,-4.891293,-3.061535,RAPGEV,1.829758
-195.921605,0.00453,BigDFT,-4.396007,-2.282695,SIFHIY,2.113313
-195.918617,0.049269,MMFF94,-4.427312,-2.28013,SIFHIY,2.147182
-110.257552,0.000575,BigDFT,-4.617698,-1.606134,TPA,3.011565
-110.255618,0.029393,MMFF94,-4.648667,-1.589318,TPA,3.059349
-181.235886,0.002522,BigDFT,-3.896496,-2.39495,TUFWAS,1.501547
-181.225573,0.067476,MMFF94,-3.866078,-2.294039,TUFWAS,1.572039
-141.0344377,0.001033755,BigDFT,-5.222548174,-3.520371241,TXO-PhCz,1.702176933
-143.88983,0.078844,MMFF94,-5.218214,-3.504901,TXO-PhCz,1.713312
-166.623182,0.001244,BigDFT,-5.990571,-4.51067,TXO-PhCz-mut,1.479902
-166.609515,0.077307,MMFF94,-5.830869,-4.39426,TXO-PhCz-mut,1.436609
-136.6422221,0.001149824,BigDFT,-4.812528569,-3.606739184,TXO-TPA,1.205789384
-139.398779,0.052497,MMFF94,-4.844501,-3.538314,TXO-TPA,1.306187
